%YAML 1.1
%TAG !u! tag:unity3d.com,2011:
--- !u!221 &22100000
AnimatorOverrideController:
  m_ObjectHideFlags: 0
  m_PrefabParentObject: {fileID: 0}
  m_PrefabInternal: {fileID: 0}
  m_Name: Enemy Strong
  m_Controller: {fileID: 9100000, guid: bdc65f53ff6ccda4e92311346055ed78, type: 2}
  m_Clips:
  - m_OriginalClip: {fileID: 7400000, guid: 2be7d94301a50eb479f0ef7a5f13c374, type: 2}
    m_OverrideClip: {fileID: 7400000, guid: b298df19e839c0b4aace40ebd0feda18, type: 2}
  - m_OriginalClip: {fileID: 7400000, guid: ed5a8ed54f7e09142afc538f4a2b5694, type: 2}
    m_OverrideClip: {fileID: 7400000, guid: 7f7e9ebc51881994e9a2d305efe7ba86, type: 2}
